slurmstepd: *** JOB 9222007 ON comet-10-06 CANCELLED AT 2017-05-11T06:04:21 DUE TO TIME LIMIT ***
[comet-10-06.sdsc.edu:mpirun_rsh][signal_processor] Caught signal 15, killing job
Connection to comet-10-06 closed by remote host.
